<?xml version="1.0" encoding="utf-8"?>
<!-- Generator: Adobe Illustrator 18.0.0, SVG Export Plug-In . SVG Version: 6.00 Build 0)  -->
<!DOCTYPE svg PUBLIC "-//W3C//DTD SVG 1.1//EN" "http://www.w3.org/Graphics/SVG/1.1/DTD/svg11.dtd">
<svg version="1.1" id="Capa_1" xmlns="http://www.w3.org/2000/svg" xmlns:xlink="http://www.w3.org/1999/xlink" x="0px" y="0px"
	 viewBox="0 0 28.3 30" enable-background="new 0 0 28.3 30" xml:space="preserve">
<path fill="#ED1C24" d="M21.5,30H6.8c-1,0-1.9-0.8-2-1.8L2.8,6l2.4-0.2l1.9,21.8h14l1.9-21.8L25.5,6l-1.9,22.2
	C23.5,29.2,22.6,30,21.5,30"/>
<path fill="#ED1C24" d="M20.7,5.9h-2.4V2.4h-8.1v3.4H7.7V2c0-1.1,0.9-2,2-2h8.9c1.1,0,2,0.9,2,2V5.9z"/>
<path fill="#ED1C24" d="M27.1,7.1H1.2C0.5,7.1,0,6.5,0,5.9s0.5-1.2,1.2-1.2h25.9c0.7,0,1.2,0.5,1.2,1.2S27.8,7.1,27.1,7.1"/>
</svg>
